module codeberg.org/u1f320/nilptr.dev

go 1.18

require gopkg.in/yaml.v3 v3.0.1

require (
	github.com/microcosm-cc/bluemonday v1.0.18
	github.com/russross/blackfriday/v2 v2.1.0
)

require (
	github.com/aymerick/douceur v0.2.0 // indirect
	github.com/gorilla/css v1.0.0 // indirect
	golang.org/x/net v0.0.0-20210614182718-04defd469f4e // indirect
)
